{
	"view_css": "",
	"view_js": "",
	"block_name": "Contact Info",
	"block_description": "",
	"block_type_set": 0,
	"cache_block_output_lifetime": "",
	"block_install": 0,
	"ignore_page_theme_grid_framework_container": 0,
	"cache_block_record": 1,
	"cache_block_output": 1,
	"cache_block_output_on_post": 1,
	"cache_block_output_for_registered_users": 1,
	"table_prefix": "",
	"interface_width": "400",
	"interface_height": "500",
	"fields": {
		"1": {
			"type": "text_box",
			"label": "Heading",
			"slug": "heading",
			"description": "",
			"prefix": "",
			"suffix": "",
			"max_length": "",
			"placeholder": "",
			"fallback_value": "",
			"repeatable": ""
		},
		"2": {
			"type": "text_box",
			"label": "Address",
			"slug": "address",
			"description": "",
			"prefix": "",
			"suffix": "",
			"max_length": "",
			"placeholder": "",
			"fallback_value": "",
			"repeatable": ""
		},
		"3": {
			"type": "text_box",
			"label": "Postal Address",
			"slug": "postal",
			"description": "",
			"prefix": "",
			"suffix": "",
			"max_length": "",
			"placeholder": "",
			"fallback_value": "",
			"repeatable": ""
		},
		"4": {
			"type": "text_box",
			"label": "Email Address",
			"slug": "email",
			"description": "",
			"prefix": "",
			"suffix": "",
			"max_length": "",
			"placeholder": "",
			"fallback_value": "",
			"repeatable": ""
		},
		"5": {
			"type": "text_box",
			"label": "Email Link Text",
			"slug": "emaillink",
			"description": "",
			"prefix": "",
			"suffix": "",
			"max_length": "",
			"placeholder": "mailto:info@braggs.com.au",
			"fallback_value": "",
			"repeatable": ""
		},
		"6": {
			"type": "text_box",
			"label": "Phone",
			"slug": "phone",
			"description": "",
			"prefix": "",
			"suffix": "",
			"max_length": "",
			"placeholder": "",
			"fallback_value": "",
			"repeatable": ""
		},
		"7": {
			"type": "text_box",
			"label": "Phone Link",
			"slug": "phonelink",
			"description": "",
			"prefix": "",
			"suffix": "",
			"max_length": "",
			"placeholder": "tel:1800...",
			"fallback_value": "",
			"repeatable": ""
		},
		"8": {
			"type": "image",
			"label": "Image",
			"slug": "image",
			"description": "",
			"prefix": "",
			"suffix": "",
			"class": "",
			"link": "",
			"link_class": "",
			"output_src_only": "1",
			"width": "",
			"height": "",
			"repeatable": ""
		}
	},
	"block_handle": "contact_info",
	"packages": {
		"block_designer": {
			"version": "2.4.3"
		},
		"block_designer_pro": {
			"version": "2.4.1"
		}
	}
}
